0123456789abcdefghijklmnopqrstuvwxyzABCDEFGHIJKLMNOPQRSTUVWXYZ[];',./{}:"<>?~!@#$%^&*()_+|\
0123456789abcdefghijklmnopqrstuvwxyzABCDEFGHIJKLMNOPQRSTUVWXYZ[];',./{}:"<>?~!@#$%^&*()_+|\
0123456789abcdefghijklmnopqrstuvwxyzABCDEFGHIJKLMNOPQRSTUVWXYZ[];',./{}:"<>?~!@#$%^&*()_+|\
0123456789abcdefghijklmnopqrstuvwxyzABCDEFGHIJKLMNOPQRSTUVWXYZ[];',./{}:"<>?~!@#$%^&*()_+|\
0123456789abcdefghijklmnopqrstuvwxyzABCDEFGHIJKLMNOPQRSTUVWXYZ[];',./{}:"<>?~!@#$%^&*()_+|\
0123456789abcdefghijklmnopqrstuvwxyzABCDEFGHIJK